%YAML 1.1
%TAG !u! tag:unity3d.com,2011:
--- !u!114 &11400000
MonoBehaviour:
  m_ObjectHideFlags: 0
  m_PrefabParentObject: {fileID: 0}
  m_PrefabInternal: {fileID: 0}
  m_GameObject: {fileID: 0}
  m_Enabled: 1
  m_EditorHideFlags: 0
  m_Script: {fileID: 11500000, guid: f5e059357dfa6d84180e61a3e5f11373, type: 3}
  m_Name: HumanoidEnemy
  m_EditorClassIdentifier: 
  health: 250
  damage: 0
  stamina: 100
  stability: 0
  healingPower: 0
  armor: 100
  movementSpeed: 200
