%YAML 1.1
%TAG !u! tag:unity3d.com,2011:
--- !u!1011 &101100000
AvatarMask:
  m_ObjectHideFlags: 0
  m_PrefabParentObject: {fileID: 0}
  m_PrefabInternal: {fileID: 0}
  m_Name: Player
  m_Mask: 00000000000000000000000000000000000000000000000001000000000000000100000000000000000000000000000000000000
  m_Elements:
  - m_Path: 
    m_Weight: 1
  - m_Path: Beta:Hips
    m_Weight: 0
  - m_Path: Beta:Hips/Beta:LeftUpLeg
    m_Weight: 0
  - m_Path: Beta:Hips/Beta:LeftUpLeg/Beta:LeftLeg
    m_Weight: 0
  - m_Path: Beta:Hips/Beta:LeftUpLeg/Beta:LeftLeg/Beta:LeftFoot
    m_Weight: 0
  - m_Path: Beta:Hips/Beta:LeftUpLeg/Beta:LeftLeg/Beta:LeftFoot/Beta:LeftToeBase
    m_Weight: 0
  - m_Path: Beta:Hips/Beta:LeftUpLeg/Beta:LeftLeg/Beta:LeftFoot/Beta:LeftToeBase/Beta:LeftFootToeBase_End
    m_Weight: 0
  - m_Path: Beta:Hips/Beta:RightUpLeg
    m_Weight: 0
  - m_Path: Beta:Hips/Beta:RightUpLeg/Beta:RightLeg
    m_Weight: 0
  - m_Path: Beta:Hips/Beta:RightUpLeg/Beta:RightLeg/Beta:RightFoot
    m_Weight: 0
  - m_Path: Beta:Hips/Beta:RightUpLeg/Beta:RightLeg/Beta:RightFoot/Beta:RightToeBase
    m_Weight: 0
  - m_Path: Beta:Hips/Beta:RightUpLeg/Beta:RightLeg/Beta:RightFoot/Beta:RightToeBase/Beta:RightFootToeBase_End
    m_Weight: 0
  - m_Path: Beta:Hips/Beta:Spine
    m_Weight: 0
  - m_Path: Beta:Hips/Beta:Spine/Beta:Spine1
    m_Weight: 0
  - m_Path: Beta:Hips/Beta:Spine/Beta:Spine1/Beta:Spine2
    m_Weight: 0
  - m_Path: Beta:Hips/Beta:Spine/Beta:Spine1/Beta:Spine2/Beta:LeftShoulder
    m_Weight: 0
  - m_Path: Beta:Hips/Beta:Spine/Beta:Spine1/Beta:Spine2/Beta:LeftShoulder/Beta:LeftArm
    m_Weight: 0
  - m_Path: Beta:Hips/Beta:Spine/Beta:Spine1/Beta:Spine2/Beta:LeftShoulder/Beta:LeftArm/Beta:LeftForeArm
    m_Weight: 0
  - m_Path: Beta:Hips/Beta:Spine/Beta:Spine1/Beta:Spine2/Beta:LeftShoulder/Beta:LeftArm/Beta:LeftForeArm/Beta:LeftHand
    m_Weight: 0
  - m_Path: Beta:Hips/Beta:Spine/Beta:Spine1/Beta:Spine2/Beta:LeftShoulder/Beta:LeftArm/Beta:LeftForeArm/Beta:LeftHand/Beta:LeftHandIndex1
    m_Weight: 0
  - m_Path: Beta:Hips/Beta:Spine/Beta:Spine1/Beta:Spine2/Beta:LeftShoulder/Beta:LeftArm/Beta:LeftForeArm/Beta:LeftHand/Beta:LeftHandIndex1/Beta:LeftHandIndex2
    m_Weight: 0
  - m_Path: Beta:Hips/Beta:Spine/Beta:Spine1/Beta:Spine2/Beta:LeftShoulder/Beta:LeftArm/Beta:LeftForeArm/Beta:LeftHand/Beta:LeftHandIndex1/Beta:LeftHandIndex2/Beta:LeftHandIndex3
    m_Weight: 0
  - m_Path: Beta:Hips/Beta:Spine/Beta:Spine1/Beta:Spine2/Beta:LeftShoulder/Beta:LeftArm/Beta:LeftForeArm/Beta:LeftHand/Beta:LeftHandIndex1/Beta:LeftHandIndex2/Beta:LeftHandIndex3/Beta:LeftHandIndex4
    m_Weight: 0
  - m_Path: Beta:Hips/Beta:Spine/Beta:Spine1/Beta:Spine2/Beta:LeftShoulder/Beta:LeftArm/Beta:LeftForeArm/Beta:LeftHand/Beta:LeftHandMiddle1
    m_Weight: 0
  - m_Path: Beta:Hips/Beta:Spine/Beta:Spine1/Beta:Spine2/Beta:LeftShoulder/Beta:LeftArm/Beta:LeftForeArm/Beta:LeftHand/Beta:LeftHandMiddle1/Beta:LeftHandMiddle2
    m_Weight: 0
  - m_Path: Beta:Hips/Beta:Spine/Beta:Spine1/Beta:Spine2/Beta:LeftShoulder/Beta:LeftArm/Beta:LeftForeArm/Beta:LeftHand/Beta:LeftHandMiddle1/Beta:LeftHandMiddle2/Beta:LeftHandMiddle3
    m_Weight: 0
  - m_Path: Beta:Hips/Beta:Spine/Beta:Spine1/Beta:Spine2/Beta:LeftShoulder/Beta:LeftArm/Beta:LeftForeArm/Beta:LeftHand/Beta:LeftHandMiddle1/Beta:LeftHandMiddle2/Beta:LeftHandMiddle3/Beta:LeftHandMiddle4
    m_Weight: 0
  - m_Path: Beta:Hips/Beta:Spine/Beta:Spine1/Beta:Spine2/Beta:LeftShoulder/Beta:LeftArm/Beta:LeftForeArm/Beta:LeftHand/Beta:LeftHandPinky1
    m_Weight: 0
  - m_Path: Beta:Hips/Beta:Spine/Beta:Spine1/Beta:Spine2/Beta:LeftShoulder/Beta:LeftArm/Beta:LeftForeArm/Beta:LeftHand/Beta:LeftHandPinky1/Beta:LeftHandPinky2
    m_Weight: 0
  - m_Path: Beta:Hips/Beta:Spine/Beta:Spine1/Beta:Spine2/Beta:LeftShoulder/Beta:LeftArm/Beta:LeftForeArm/Beta:LeftHand/Beta:LeftHandPinky1/Beta:LeftHandPinky2/Beta:LeftHandPinky3
    m_Weight: 0
  - m_Path: Beta:Hips/Beta:Spine/Beta:Spine1/Beta:Spine2/Beta:LeftShoulder/Beta:LeftArm/Beta:LeftForeArm/Beta:LeftHand/Beta:LeftHandPinky1/Beta:LeftHandPinky2/Beta:LeftHandPinky3/Beta:LeftHandPinky4
    m_Weight: 0
  - m_Path: Beta:Hips/Beta:Spine/Beta:Spine1/Beta:Spine2/Beta:LeftShoulder/Beta:LeftArm/Beta:LeftForeArm/Beta:LeftHand/Beta:LeftHandRing1
    m_Weight: 0
  - m_Path: Beta:Hips/Beta:Spine/Beta:Spine1/Beta:Spine2/Beta:LeftShoulder/Beta:LeftArm/Beta:LeftForeArm/Beta:LeftHand/Beta:LeftHandRing1/Beta:LeftHandRing2
    m_Weight: 0
  - m_Path: Beta:Hips/Beta:Spine/Beta:Spine1/Beta:Spine2/Beta:LeftShoulder/Beta:LeftArm/Beta:LeftForeArm/Beta:LeftHand/Beta:LeftHandRing1/Beta:LeftHandRing2/Beta:LeftHandRing3
    m_Weight: 0
  - m_Path: Beta:Hips/Beta:Spine/Beta:Spine1/Beta:Spine2/Beta:LeftShoulder/Beta:LeftArm/Beta:LeftForeArm/Beta:LeftHand/Beta:LeftHandRing1/Beta:LeftHandRing2/Beta:LeftHandRing3/Beta:LeftHandRing4
    m_Weight: 0
  - m_Path: Beta:Hips/Beta:Spine/Beta:Spine1/Beta:Spine2/Beta:LeftShoulder/Beta:LeftArm/Beta:LeftForeArm/Beta:LeftHand/Beta:LeftHandThumb1
    m_Weight: 0
  - m_Path: Beta:Hips/Beta:Spine/Beta:Spine1/Beta:Spine2/Beta:LeftShoulder/Beta:LeftArm/Beta:LeftForeArm/Beta:LeftHand/Beta:LeftHandThumb1/Beta:LeftHandThumb2
    m_Weight: 0
  - m_Path: Beta:Hips/Beta:Spine/Beta:Spine1/Beta:Spine2/Beta:LeftShoulder/Beta:LeftArm/Beta:LeftForeArm/Beta:LeftHand/Beta:LeftHandThumb1/Beta:LeftHandThumb2/Beta:LeftHandThumb3
    m_Weight: 0
  - m_Path: Beta:Hips/Beta:Spine/Beta:Spine1/Beta:Spine2/Beta:LeftShoulder/Beta:LeftArm/Beta:LeftForeArm/Beta:LeftHand/Beta:LeftHandThumb1/Beta:LeftHandThumb2/Beta:LeftHandThumb3/Beta:LeftHandThumb4
    m_Weight: 0
  - m_Path: Beta:Hips/Beta:Spine/Beta:Spine1/Beta:Spine2/Beta:Neck
    m_Weight: 0
  - m_Path: Beta:Hips/Beta:Spine/Beta:Spine1/Beta:Spine2/Beta:Neck/Beta:Neck1
    m_Weight: 0
  - m_Path: Beta:Hips/Beta:Spine/Beta:Spine1/Beta:Spine2/Beta:Neck/Beta:Neck1/Beta:Head
    m_Weight: 0
  - m_Path: Beta:Hips/Beta:Spine/Beta:Spine1/Beta:Spine2/Beta:Neck/Beta:Neck1/Beta:Head/Beta:HeadTop_End
    m_Weight: 0
  - m_Path: Beta:Hips/Beta:Spine/Beta:Spine1/Beta:Spine2/Beta:RightShoulder
    m_Weight: 1
  - m_Path: Beta:Hips/Beta:Spine/Beta:Spine1/Beta:Spine2/Beta:RightShoulder/Beta:RightArm
    m_Weight: 1
  - m_Path: Beta:Hips/Beta:Spine/Beta:Spine1/Beta:Spine2/Beta:RightShoulder/Beta:RightArm/Beta:RightForeArm
    m_Weight: 1
  - m_Path: Beta:Hips/Beta:Spine/Beta:Spine1/Beta:Spine2/Beta:RightShoulder/Beta:RightArm/Beta:RightForeArm/Beta:RightHand
    m_Weight: 1
  - m_Path: Beta:Hips/Beta:Spine/Beta:Spine1/Beta:Spine2/Beta:RightShoulder/Beta:RightArm/Beta:RightForeArm/Beta:RightHand/Beta:RightHandIndex1
    m_Weight: 1
  - m_Path: Beta:Hips/Beta:Spine/Beta:Spine1/Beta:Spine2/Beta:RightShoulder/Beta:RightArm/Beta:RightForeArm/Beta:RightHand/Beta:RightHandIndex1/Beta:RightHandIndex2
    m_Weight: 1
  - m_Path: Beta:Hips/Beta:Spine/Beta:Spine1/Beta:Spine2/Beta:RightShoulder/Beta:RightArm/Beta:RightForeArm/Beta:RightHand/Beta:RightHandIndex1/Beta:RightHandIndex2/Beta:RightHandIndex3
    m_Weight: 1
  - m_Path: Beta:Hips/Beta:Spine/Beta:Spine1/Beta:Spine2/Beta:RightShoulder/Beta:RightArm/Beta:RightForeArm/Beta:RightHand/Beta:RightHandIndex1/Beta:RightHandIndex2/Beta:RightHandIndex3/Beta:RightHandIndex4
    m_Weight: 1
  - m_Path: Beta:Hips/Beta:Spine/Beta:Spine1/Beta:Spine2/Beta:RightShoulder/Beta:RightArm/Beta:RightForeArm/Beta:RightHand/Beta:RightHandMiddle1
    m_Weight: 1
  - m_Path: Beta:Hips/Beta:Spine/Beta:Spine1/Beta:Spine2/Beta:RightShoulder/Beta:RightArm/Beta:RightForeArm/Beta:RightHand/Beta:RightHandMiddle1/Beta:RightHandMiddle2
    m_Weight: 1
  - m_Path: Beta:Hips/Beta:Spine/Beta:Spine1/Beta:Spine2/Beta:RightShoulder/Beta:RightArm/Beta:RightForeArm/Beta:RightHand/Beta:RightHandMiddle1/Beta:RightHandMiddle2/Beta:RightHandMiddle3
    m_Weight: 1
  - m_Path: Beta:Hips/Beta:Spine/Beta:Spine1/Beta:Spine2/Beta:RightShoulder/Beta:RightArm/Beta:RightForeArm/Beta:RightHand/Beta:RightHandMiddle1/Beta:RightHandMiddle2/Beta:RightHandMiddle3/Beta:RightHandMiddle4
    m_Weight: 1
  - m_Path: Beta:Hips/Beta:Spine/Beta:Spine1/Beta:Spine2/Beta:RightShoulder/Beta:RightArm/Beta:RightForeArm/Beta:RightHand/Beta:RightHandPinky1
    m_Weight: 1
  - m_Path: Beta:Hips/Beta:Spine/Beta:Spine1/Beta:Spine2/Beta:RightShoulder/Beta:RightArm/Beta:RightForeArm/Beta:RightHand/Beta:RightHandPinky1/Beta:RightHandPinky2
    m_Weight: 1
  - m_Path: Beta:Hips/Beta:Spine/Beta:Spine1/Beta:Spine2/Beta:RightShoulder/Beta:RightArm/Beta:RightForeArm/Beta:RightHand/Beta:RightHandPinky1/Beta:RightHandPinky2/Beta:RightHandPinky3
    m_Weight: 1
  - m_Path: Beta:Hips/Beta:Spine/Beta:Spine1/Beta:Spine2/Beta:RightShoulder/Beta:RightArm/Beta:RightForeArm/Beta:RightHand/Beta:RightHandPinky1/Beta:RightHandPinky2/Beta:RightHandPinky3/Beta:RightHandPinky4
    m_Weight: 1
  - m_Path: Beta:Hips/Beta:Spine/Beta:Spine1/Beta:Spine2/Beta:RightShoulder/Beta:RightArm/Beta:RightForeArm/Beta:RightHand/Beta:RightHandRing1
    m_Weight: 1
  - m_Path: Beta:Hips/Beta:Spine/Beta:Spine1/Beta:Spine2/Beta:RightShoulder/Beta:RightArm/Beta:RightForeArm/Beta:RightHand/Beta:RightHandRing1/Beta:RightHandRing2
    m_Weight: 1
  - m_Path: Beta:Hips/Beta:Spine/Beta:Spine1/Beta:Spine2/Beta:RightShoulder/Beta:RightArm/Beta:RightForeArm/Beta:RightHand/Beta:RightHandRing1/Beta:RightHandRing2/Beta:RightHandRing3
    m_Weight: 1
  - m_Path: Beta:Hips/Beta:Spine/Beta:Spine1/Beta:Spine2/Beta:RightShoulder/Beta:RightArm/Beta:RightForeArm/Beta:RightHand/Beta:RightHandRing1/Beta:RightHandRing2/Beta:RightHandRing3/Beta:RightHandRing4
    m_Weight: 1
  - m_Path: Beta:Hips/Beta:Spine/Beta:Spine1/Beta:Spine2/Beta:RightShoulder/Beta:RightArm/Beta:RightForeArm/Beta:RightHand/Beta:RightHandThumb1
    m_Weight: 1
  - m_Path: Beta:Hips/Beta:Spine/Beta:Spine1/Beta:Spine2/Beta:RightShoulder/Beta:RightArm/Beta:RightForeArm/Beta:RightHand/Beta:RightHandThumb1/Beta:RightHandThumb2
    m_Weight: 1
  - m_Path: Beta:Hips/Beta:Spine/Beta:Spine1/Beta:Spine2/Beta:RightShoulder/Beta:RightArm/Beta:RightForeArm/Beta:RightHand/Beta:RightHandThumb1/Beta:RightHandThumb2/Beta:RightHandThumb3
    m_Weight: 1
  - m_Path: Beta:Hips/Beta:Spine/Beta:Spine1/Beta:Spine2/Beta:RightShoulder/Beta:RightArm/Beta:RightForeArm/Beta:RightHand/Beta:RightHandThumb1/Beta:RightHandThumb2/Beta:RightHandThumb3/Beta:RightHandThumb4
    m_Weight: 1
  - m_Path: BetaHighResMeshes
    m_Weight: 0
  - m_Path: BetaHighResMeshes/Beta_HighJointsGeo
    m_Weight: 0
  - m_Path: BetaHighResMeshes/Beta_HighLimbsGeo
    m_Weight: 0
  - m_Path: BetaHighResMeshes/Beta_HighTorsoGeo
    m_Weight: 0
