%YAML 1.1
%TAG !u! tag:unity3d.com,2011:
--- !u!21 &2100000
Material:
  serializedVersion: 6
  m_ObjectHideFlags: 0
  m_PrefabParentObject: {fileID: 0}
  m_PrefabInternal: {fileID: 0}
  m_Name: M_Wall
  m_Shader: {fileID: 4800000, guid: 0f46553b56f603a47860ea1e80fa773b, type: 3}
  m_ShaderKeywords: 
  m_LightmapFlags: 5
  m_CustomRenderQueue: 2000
  stringTagMap: {}
  m_SavedProperties:
    serializedVersion: 2
    m_TexEnvs:
      data:
        first:
          name: _MainTex
        second:
          m_Texture: {fileID: 0}
          m_Scale: {x: 1, y: 1}
          m_Offset: {x: 0, y: 0}
      data:
        first:
          name: _BumpMap
        second:
          m_Texture: {fileID: 0}
          m_Scale: {x: 1, y: 1}
          m_Offset: {x: 0, y: 0}
      data:
        first:
          name: _DetailNormalMap
        second:
          m_Texture: {fileID: 0}
          m_Scale: {x: 1, y: 1}
          m_Offset: {x: 0, y: 0}
      data:
        first:
          name: _1_DiffuseAO
        second:
          m_Texture: {fileID: 2800000, guid: 1990ad99a8401074ba47cb2ec72967e0, type: 3}
          m_Scale: {x: 2, y: 2}
          m_Offset: {x: 0, y: 0}
      data:
        first:
          name: _1_MetalRoughEmi
        second:
          m_Texture: {fileID: 2800000, guid: e48695a0c3a764145806e1f2138cafd6, type: 3}
          m_Scale: {x: 2, y: 2}
          m_Offset: {x: 0, y: 0}
      data:
        first:
          name: _1_Normal
        second:
          m_Texture: {fileID: 2800000, guid: bdc0c8b6fd61a864ab0d4fdf8f11c008, type: 3}
          m_Scale: {x: 2, y: 2}
          m_Offset: {x: 0, y: 0}
      data:
        first:
          name: _2_DiffuseAO
        second:
          m_Texture: {fileID: 2800000, guid: a6a7156a58d3ac1499253110a341875f, type: 3}
          m_Scale: {x: 1, y: 1}
          m_Offset: {x: 0, y: 0}
      data:
        first:
          name: _2_MetalRoughEmi
        second:
          m_Texture: {fileID: 2800000, guid: a6ec1a8f5959a5148b5b913359ed4457, type: 3}
          m_Scale: {x: 1, y: 1}
          m_Offset: {x: 0, y: 0}
      data:
        first:
          name: _2_Normal
        second:
          m_Texture: {fileID: 2800000, guid: fbacf8e6335fff44786901c74618148d, type: 3}
          m_Scale: {x: 1, y: 1}
          m_Offset: {x: 0, y: 0}
      data:
        first:
          name: _Wallblend
        second:
          m_Texture: {fileID: 2800000, guid: e1adcbb42b1fcbc4782ccd01e35ae6e9, type: 3}
          m_Scale: {x: 3, y: 6}
          m_Offset: {x: 0, y: 0}
      data:
        first:
          name: _Brick1_Mask
        second:
          m_Texture: {fileID: 2800000, guid: 3a4aaa5ee5d80a944b37c4fe05f09de8, type: 3}
          m_Scale: {x: 3, y: 3}
          m_Offset: {x: 0, y: 0}
      data:
        first:
          name: _ParallaxMap
        second:
          m_Texture: {fileID: 0}
          m_Scale: {x: 1, y: 1}
          m_Offset: {x: 0, y: 0}
      data:
        first:
          name: _OcclusionMap
        second:
          m_Texture: {fileID: 2800000, guid: ada2aea0ee82e954eac2c8d11188b63f, type: 3}
          m_Scale: {x: 1, y: 1}
          m_Offset: {x: 0, y: 0}
      data:
        first:
          name: _EmissionMap
        second:
          m_Texture: {fileID: 0}
          m_Scale: {x: 1, y: 1}
          m_Offset: {x: 0, y: 0}
      data:
        first:
          name: _DetailMask
        second:
          m_Texture: {fileID: 0}
          m_Scale: {x: 1, y: 1}
          m_Offset: {x: 0, y: 0}
      data:
        first:
          name: _DetailAlbedoMap
        second:
          m_Texture: {fileID: 0}
          m_Scale: {x: 1, y: 1}
          m_Offset: {x: 0, y: 0}
      data:
        first:
          name: _MetallicGlossMap
        second:
          m_Texture: {fileID: 0}
          m_Scale: {x: 1, y: 1}
          m_Offset: {x: 0, y: 0}
    m_Floats:
      data:
        first:
          name: _SrcBlend
        second: 1
      data:
        first:
          name: _DstBlend
        second: 0
      data:
        first:
          name: _Cutoff
        second: 0.5
      data:
        first:
          name: _BlendPower
        second: 24
      data:
        first:
          name: _Parallax
        second: 0.08
      data:
        first:
          name: _ZWrite
        second: 1
      data:
        first:
          name: _Glossiness
        second: 0
      data:
        first:
          name: _BumpScale
        second: 1
      data:
        first:
          name: _OcclusionStrength
        second: 1
      data:
        first:
          name: _DetailNormalMapScale
        second: 1
      data:
        first:
          name: _UVSec
        second: 0
      data:
        first:
          name: _Mode
        second: 0
      data:
        first:
          name: _Metallic
        second: 0
    m_Colors:
      data:
        first:
          name: _EmissionColor
        second: {r: 0, g: 0, b: 0, a: 1}
      data:
        first:
          name: _Color
        second: {r: 1, g: 1, b: 1, a: 1}
