%YAML 1.1
%TAG !u! tag:unity3d.com,2011:
--- !u!221 &22100000
AnimatorOverrideController:
  m_ObjectHideFlags: 0
  m_PrefabParentObject: {fileID: 0}
  m_PrefabInternal: {fileID: 0}
  m_Name: Halberd
  m_Controller: {fileID: 9100000, guid: 44eeb497b05dfea4ca9a4f535ebe477c, type: 2}
  m_Clips:
  - m_OriginalClip: {fileID: 7400000, guid: fde11d335af76ba458631b22ed8ffe40, type: 2}
    m_OverrideClip: {fileID: 7400000, guid: fde11d335af76ba458631b22ed8ffe40, type: 2}
  - m_OriginalClip: {fileID: 7400000, guid: 95a4b7747a6b7884eb647a977e90f1ec, type: 2}
    m_OverrideClip: {fileID: 7400000, guid: 95a4b7747a6b7884eb647a977e90f1ec, type: 2}
  - m_OriginalClip: {fileID: 7400000, guid: 5dcd6eb8b4b5e9f44be823ac34381480, type: 2}
    m_OverrideClip: {fileID: 7400000, guid: d16d70a0121649343bbc1e3a2eca1652, type: 2}
  - m_OriginalClip: {fileID: 7400000, guid: 128bc44b5a66c3f499782bf75fc7f102, type: 2}
    m_OverrideClip: {fileID: 7400000, guid: 128bc44b5a66c3f499782bf75fc7f102, type: 2}
  - m_OriginalClip: {fileID: 7400000, guid: 1f176991256d4e14e877681f9fc0c7f7, type: 2}
    m_OverrideClip: {fileID: 7400000, guid: 1f176991256d4e14e877681f9fc0c7f7, type: 2}
  - m_OriginalClip: {fileID: 7400000, guid: 44b07770207b2ab4ab2806d4dccac2ed, type: 2}
    m_OverrideClip: {fileID: 7400000, guid: 44b07770207b2ab4ab2806d4dccac2ed, type: 2}
